# cube.obj
#

o cube
mtllib cube.mtl

v -0.500000 -0.500000 0.500000
v 0.500000 -0.500000 0.500000
v -0.500000 0.500000 0.500000
v 0.500000 0.500000 0.500000
v -0.500000 0.500000 -0.500000
v 0.500000 0.500000 -0.500000
v -0.500000 -0.500000 -0.500000
v 0.500000 -0.500000 -0.500000

vt 0.000000 0.000000
vt 1.000000 0.000000
vt 0.000000 1.000000
vt 1.000000 1.000000

vn 0.000000 0.000000 1.000000
vn 0.000000 1.000000 0.000000
vn 0.000000 0.000000 -1.000000
vn 0.000000 -1.000000 0.000000
vn 1.000000 0.000000 0.000000
vn -1.000000 0.000000 0.000000

g cube
usemtl cube
s 1
f 1/3/1 2/4/1 4/2/1
f 4/2/1 3/1/1 1/3/1
s 2
f 5/1/2 4/4/2 6/2/2
f 4/4/2 5/1/2 3/3/2
s 3
f 7/4/3 6/1/3 8/3/3
f 6/1/3 7/4/3 5/2/3
s 4
f 7/2/4 8/1/4 2/3/4
f 2/3/4 1/4/4 7/2/4
s 5
f 6/2/5 4/1/5 8/4/5
f 8/4/5 4/1/5 2/3/5
s 6
f 3/2/6 5/1/6 7/3/6
f 7/3/6 1/4/6 3/2/6